<?xml version="1.0" encoding="UTF-8" standalone="no"?>
<!-- Created with Inkscape (http://www.inkscape.org/) -->

<svg
   xmlns:dc="http://purl.org/dc/elements/1.1/"
   xmlns:cc="http://creativecommons.org/ns#"
   xmlns:rdf="http://www.w3.org/1999/02/22-rdf-syntax-ns#"
   xmlns:svg="http://www.w3.org/2000/svg"
   xmlns="http://www.w3.org/2000/svg"
   xmlns:sodipodi="http://sodipodi.sourceforge.net/DTD/sodipodi-0.dtd"
   xmlns:inkscape="http://www.inkscape.org/namespaces/inkscape"
   width="1050.36"
   height="175"
   id="svg5199"
   version="1.1"
   inkscape:version="0.48.4 r9939"
   sodipodi:docname="about bar.svg">
  <defs
     id="defs5201" />
  <sodipodi:namedview
     id="base"
     pagecolor="#ffffff"
     bordercolor="#666666"
     borderopacity="1.0"
     inkscape:pageopacity="0.0"
     inkscape:pageshadow="2"
     inkscape:zoom="3.959798"
     inkscape:cx="1078.9826"
     inkscape:cy="61.062607"
     inkscape:document-units="px"
     inkscape:current-layer="layer1"
     showgrid="false"
     height="744.09px"
     inkscape:window-width="1920"
     inkscape:window-height="1003"
     inkscape:window-x="-9"
     inkscape:window-y="-9"
     inkscape:window-maximized="1" />
  <metadata
     id="metadata5204">
    <rdf:RDF>
      <cc:Work
         rdf:about="">
        <dc:format>image/svg+xml</dc:format>
        <dc:type
           rdf:resource="http://purl.org/dc/dcmitype/StillImage" />
        <dc:title />
      </cc:Work>
    </rdf:RDF>
  </metadata>
  <g
     inkscape:label="Layer 1"
     inkscape:groupmode="layer"
     id="layer1"
     transform="translate(0,-877.36299)">
    <g
       transform="matrix(1.3161829,0,0,-1.3161829,876.6163,881.04379)"
       id="g5066">
      <path
         inkscape:connector-curvature="0"
         id="path3553"
         style="fill:#c5d4da;fill-opacity:1;fill-rule:nonzero;stroke:none"
         d="M 0,0 66.667,21.679 0,43.351 0,0 z"
         transform="translate(-666.666,-130.0703)" />
      <path
         inkscape:connector-curvature="0"
         id="path3557"
         style="fill:#f9fafa;fill-opacity:1;fill-rule:nonzero;stroke:none"
         d="M 0,0 66.667,-21.672 0,-43.352 0,0 z"
         transform="translate(-399.999,-86.7188)" />
      <path
         inkscape:connector-curvature="0"
         id="path3561"
         style="fill:#f6f7f8;fill-opacity:1;fill-rule:nonzero;stroke:none"
         d="M 0,0 66.666,-21.672 0,-43.352 0,0 z"
         transform="translate(-133.332,-86.7188)" />
      <path
         inkscape:connector-curvature="0"
         id="path3565"
         style="fill:#dee4e7;fill-opacity:1;fill-rule:nonzero;stroke:none"
         d="M 0,0 66.666,-21.68 0,-43.352 0,0 z"
         transform="translate(-599.999,-65.039096)" />
      <path
         inkscape:connector-curvature="0"
         id="path3569"
         style="fill:#fbfcfc;fill-opacity:1;fill-rule:nonzero;stroke:none"
         d="M 0,0 66.666,-21.68 0,-43.352 0,0 z"
         transform="translate(-333.332,-65.039096)" />
      <path
         inkscape:connector-curvature="0"
         id="path3573"
         style="fill:#edeff2;fill-opacity:1;fill-rule:nonzero;stroke:none"
         d="M 0,0 66.666,-21.68 0,-43.352 0,0 z"
         transform="translate(-66.666,-65.039096)" />
      <path
         inkscape:connector-curvature="0"
         id="path3577"
         style="fill:#eceff0;fill-opacity:1;fill-rule:nonzero;stroke:none"
         d="M 0,0 66.667,-21.672 0,-43.352 0,0 z"
         transform="translate(-533.333,-86.7188)" />
      <path
         inkscape:connector-curvature="0"
         id="path3581"
         style="fill:#fdfdfd;fill-opacity:1;fill-rule:nonzero;stroke:none"
         d="M 0,0 66.666,-21.672 0,-43.352 0,0 z"
         transform="translate(-266.666,-86.7188)" />
      <path
         inkscape:connector-curvature="0"
         id="path3585"
         style="fill:#cfdbde;fill-opacity:1;fill-rule:nonzero;stroke:none"
         d="M 0,0 66.668,-21.672 0,-43.352 0,0 z"
         transform="translate(0,-86.7188)" />
      <path
         inkscape:connector-curvature="0"
         id="path3589"
         style="fill:#f5f6f7;fill-opacity:1;fill-rule:nonzero;stroke:none"
         d="M 0,0 66.667,-21.68 0,-43.352 0,0 z"
         transform="translate(-466.666,-65.039096)" />
      <path
         inkscape:connector-curvature="0"
         id="path3593"
         style="fill:#f8f9fa;fill-opacity:1;fill-rule:nonzero;stroke:none"
         d="M 0,0 66.668,-21.68 0,-43.352 0,0 z"
         transform="translate(-200,-65.039096)" />
      <path
         inkscape:connector-curvature="0"
         id="path3597"
         style="fill:#c7d1d5;fill-opacity:1;fill-rule:nonzero;stroke:none"
         d="M 0,0 66.666,-21.68 0,-43.352 0,0 z"
         transform="translate(66.668,-65.039096)" />
      <path
         inkscape:connector-curvature="0"
         id="path3601"
         style="fill:#c5d3d9;fill-opacity:1;fill-rule:nonzero;stroke:none"
         d="M 0,0 66.667,21.68 0,43.359 0,0 z"
         transform="translate(-666.666,-86.719096)" />
      <path
         inkscape:connector-curvature="0"
         id="path3605"
         style="fill:#fafafb;fill-opacity:1;fill-rule:nonzero;stroke:none"
         d="M 0,0 66.667,-21.68 0,-43.359 0,0 z"
         transform="translate(-399.999,-43.3594)" />
      <path
         inkscape:connector-curvature="0"
         id="path3609"
         style="fill:#f2f4f5;fill-opacity:1;fill-rule:nonzero;stroke:none"
         d="M 0,0 66.666,-21.68 0,-43.359 0,0 z"
         transform="translate(-133.332,-43.3594)" />
      <path
         inkscape:connector-curvature="0"
         id="path3613"
         style="fill:#e0e6e8;fill-opacity:1;fill-rule:nonzero;stroke:none"
         d="M 0,0 66.666,-21.68 0,-43.359 0,0 z"
         transform="translate(-599.999,-21.679704)" />
      <path
         inkscape:connector-curvature="0"
         id="path3617"
         style="fill:#fbfcfc;fill-opacity:1;fill-rule:nonzero;stroke:none"
         d="M 0,0 66.666,-21.68 0,-43.359 0,0 z"
         transform="translate(-333.332,-21.679704)" />
      <path
         inkscape:connector-curvature="0"
         id="path3621"
         style="fill:#eaedef;fill-opacity:1;fill-rule:nonzero;stroke:none"
         d="M 0,0 66.666,-21.68 0,-43.359 0,0 z"
         transform="translate(-66.666,-21.679704)" />
      <path
         inkscape:connector-curvature="0"
         id="path3625"
         style="fill:#eef0f2;fill-opacity:1;fill-rule:nonzero;stroke:none"
         d="M 0,0 66.667,-21.68 0,-43.359 0,0 z"
         transform="translate(-533.333,-43.3594)" />
      <path
         inkscape:connector-curvature="0"
         id="path3629"
         style="fill:#fafbfb;fill-opacity:1;fill-rule:nonzero;stroke:none"
         d="M 0,0 66.666,-21.68 0,-43.359 0,0 z"
         transform="translate(-266.666,-43.3594)" />
      <path
         inkscape:connector-curvature="0"
         id="path3633"
         style="fill:#d4dcdf;fill-opacity:1;fill-rule:nonzero;stroke:none"
         d="M 0,0 66.668,-21.68 0,-43.359 0,0 z"
         transform="translate(0,-43.3594)" />
      <path
         inkscape:connector-curvature="0"
         id="path3637"
         style="fill:#f7f8f8;fill-opacity:1;fill-rule:nonzero;stroke:none"
         d="M 0,0 66.667,-21.68 0,-43.359 0,0 z"
         transform="translate(-466.666,-21.679704)" />
      <path
         inkscape:connector-curvature="0"
         id="path3641"
         style="fill:#f5f7f7;fill-opacity:1;fill-rule:nonzero;stroke:none"
         d="M 0,0 66.668,-21.68 0,-43.359 0,0 z"
         transform="translate(-200,-21.679704)" />
      <path
         inkscape:connector-curvature="0"
         id="path3645"
         style="fill:#c4cdd0;fill-opacity:1;fill-rule:nonzero;stroke:none"
         d="M 0,0 66.666,-21.68 0,-43.359 0,0 z"
         transform="translate(66.668,-21.679704)" />
      <path
         inkscape:connector-curvature="0"
         id="path3649"
         style="fill:#c5d0d6;fill-opacity:1;fill-rule:nonzero;stroke:none"
         d="M 0,0 66.667,21.68 0,43.359 0,0 z"
         transform="translate(-666.666,-43.3598)" />
      <path
         inkscape:connector-curvature="0"
         id="path3653"
         style="fill:#fafbfb;fill-opacity:1;fill-rule:nonzero;stroke:none"
         d="M 0,0 66.667,-21.68 0,-43.359 0,0 z"
         transform="translate(-399.999,0)" />
      <path
         inkscape:connector-curvature="0"
         id="path3657"
         style="fill:#eff1f2;fill-opacity:1;fill-rule:nonzero;stroke:none"
         d="M 0,0 66.666,-21.68 0,-43.359 0,0 z"
         transform="translate(-133.332,0)" />
      <path
         inkscape:connector-curvature="0"
         id="path3673"
         style="fill:#eff1f2;fill-opacity:1;fill-rule:nonzero;stroke:none"
         d="M 0,0 66.667,-21.68 0,-43.359 0,0 z"
         transform="translate(-533.333,0)" />
      <path
         inkscape:connector-curvature="0"
         id="path3677"
         style="fill:#fafafa;fill-opacity:1;fill-rule:nonzero;stroke:none"
         d="M 0,0 66.666,-21.68 0,-43.359 0,0 z"
         transform="translate(-266.666,0)" />
      <path
         inkscape:connector-curvature="0"
         id="path3681"
         style="fill:#d9dfe2;fill-opacity:1;fill-rule:nonzero;stroke:none"
         d="M 0,0 66.668,-21.68 0,-43.359 0,0 z" />
      <path
         inkscape:connector-curvature="0"
         id="path4465"
         style="fill:#f6f7f8;fill-opacity:1;fill-rule:nonzero;stroke:none"
         d="M 0,0 -66.667,-21.672 0,-43.352 0,0 z"
         transform="translate(-399.999,-86.7188)" />
      <path
         inkscape:connector-curvature="0"
         id="path4469"
         style="fill:#f8f9f9;fill-opacity:1;fill-rule:nonzero;stroke:none"
         d="M 0,0 -66.668,-21.672 0,-43.352 0,0 z"
         transform="translate(-133.332,-86.7188)" />
      <path
         inkscape:connector-curvature="0"
         id="path4473"
         style="fill:#c4ced2;fill-opacity:1;fill-rule:nonzero;stroke:none"
         d="M 0,0 -66.666,-21.672 0,-43.352 0,0 z"
         transform="translate(133.334,-86.7188)" />
      <path
         inkscape:connector-curvature="0"
         id="path4477"
         style="fill:#cfdadf;fill-opacity:1;fill-rule:nonzero;stroke:none"
         d="m 0,0 66.667,-21.672 0,43.352 L 0,0 z"
         transform="translate(-666.666,-86.719096)" />
      <path
         inkscape:connector-curvature="0"
         id="path4481"
         style="fill:#fbfbfc;fill-opacity:1;fill-rule:nonzero;stroke:none"
         d="M 0,0 -66.667,-21.68 0,-43.352 0,0 z"
         transform="translate(-333.332,-65.039096)" />
      <path
         inkscape:connector-curvature="0"
         id="path4485"
         style="fill:#f3f4f5;fill-opacity:1;fill-rule:nonzero;stroke:none"
         d="M 0,0 -66.666,-21.68 0,-43.352 0,0 z"
         transform="translate(-66.666,-65.039096)" />
      <path
         inkscape:connector-curvature="0"
         id="path4489"
         style="fill:#e2e8ea;fill-opacity:1;fill-rule:nonzero;stroke:none"
         d="M 0,0 -66.666,-21.672 0,-43.352 0,0 z"
         transform="translate(-533.333,-86.7188)" />
      <path
         inkscape:connector-curvature="0"
         id="path4493"
         style="fill:#fcfcfd;fill-opacity:1;fill-rule:nonzero;stroke:none"
         d="M 0,0 -66.666,-21.672 0,-43.352 0,0 z"
         transform="translate(-266.666,-86.7188)" />
      <path
         inkscape:connector-curvature="0"
         id="path4497"
         style="fill:#e7ebed;fill-opacity:1;fill-rule:nonzero;stroke:none"
         d="M 0,0 -66.666,-21.672 0,-43.352 0,0 z"
         transform="translate(0,-86.7188)" />
      <path
         inkscape:connector-curvature="0"
         id="path4501"
         style="fill:#f0f2f3;fill-opacity:1;fill-rule:nonzero;stroke:none"
         d="M 0,0 -66.667,-21.68 0,-43.352 0,0 z"
         transform="translate(-466.666,-65.039096)" />
      <path
         inkscape:connector-curvature="0"
         id="path4505"
         style="fill:#fbfbfc;fill-opacity:1;fill-rule:nonzero;stroke:none"
         d="M 0,0 -66.666,-21.68 0,-43.352 0,0 z"
         transform="translate(-200,-65.039096)" />
      <path
         inkscape:connector-curvature="0"
         id="path4509"
         style="fill:#c9d5d8;fill-opacity:1;fill-rule:nonzero;stroke:none"
         d="M 0,0 -66.668,-21.68 0,-43.352 0,0 z"
         transform="translate(66.668,-65.039096)" />
      <path
         inkscape:connector-curvature="0"
         id="path4513"
         style="fill:#f8f9f9;fill-opacity:1;fill-rule:nonzero;stroke:none"
         d="M 0,0 -66.667,-21.68 0,-43.359 0,0 z"
         transform="translate(-399.999,-43.3594)" />
      <path
         inkscape:connector-curvature="0"
         id="path4517"
         style="fill:#f6f7f7;fill-opacity:1;fill-rule:nonzero;stroke:none"
         d="M 0,0 -66.668,-21.68 0,-43.359 0,0 z"
         transform="translate(-133.332,-43.3594)" />
      <path
         inkscape:connector-curvature="0"
         id="path4521"
         style="fill:#c0cbce;fill-opacity:1;fill-rule:nonzero;stroke:none"
         d="M 0,0 -66.666,-21.68 0,-43.359 0,0 z"
         transform="translate(133.334,-43.3594)" />
      <path
         inkscape:connector-curvature="0"
         id="path4525"
         style="fill:#d0dadf;fill-opacity:1;fill-rule:nonzero;stroke:none"
         d="m 0,0 66.667,-21.679 0,43.359 L 0,0 z"
         transform="translate(-666.666,-43.3598)" />
      <path
         inkscape:connector-curvature="0"
         id="path4529"
         style="fill:#fafbfb;fill-opacity:1;fill-rule:nonzero;stroke:none"
         d="M 0,0 -66.667,-21.68 0,-43.359 0,0 z"
         transform="translate(-333.332,-21.679704)" />
      <path
         inkscape:connector-curvature="0"
         id="path4533"
         style="fill:#eff0f1;fill-opacity:1;fill-rule:nonzero;stroke:none"
         d="M 0,0 -66.666,-21.68 0,-43.359 0,0 z"
         transform="translate(-66.666,-21.679704)" />
      <path
         inkscape:connector-curvature="0"
         id="path4537"
         style="fill:#e4eaec;fill-opacity:1;fill-rule:nonzero;stroke:none"
         d="M 0,0 -66.666,-21.68 0,-43.359 0,0 z"
         transform="translate(-533.333,-43.3594)" />
      <path
         inkscape:connector-curvature="0"
         id="path4541"
         style="fill:#fbfbfc;fill-opacity:1;fill-rule:nonzero;stroke:none"
         d="M 0,0 -66.666,-21.68 0,-43.359 0,0 z"
         transform="translate(-266.666,-43.3594)" />
      <path
         inkscape:connector-curvature="0"
         id="path4545"
         style="fill:#e7eaec;fill-opacity:1;fill-rule:nonzero;stroke:none"
         d="M 0,0 -66.666,-21.68 0,-43.359 0,0 z"
         transform="translate(0,-43.3594)" />
      <path
         inkscape:connector-curvature="0"
         id="path4549"
         style="fill:#f2f3f4;fill-opacity:1;fill-rule:nonzero;stroke:none"
         d="M 0,0 -66.667,-21.68 0,-43.359 0,0 z"
         transform="translate(-466.666,-21.679704)" />
      <path
         inkscape:connector-curvature="0"
         id="path4553"
         style="fill:#f8f9f9;fill-opacity:1;fill-rule:nonzero;stroke:none"
         d="M 0,0 -66.666,-21.68 0,-43.359 0,0 z"
         transform="translate(-200,-21.679704)" />
      <path
         inkscape:connector-curvature="0"
         id="path4557"
         style="fill:#d1d9dc;fill-opacity:1;fill-rule:nonzero;stroke:none"
         d="M 0,0 -66.668,-21.68 0,-43.359 0,0 z"
         transform="translate(66.668,-21.679704)" />
      <path
         inkscape:connector-curvature="0"
         id="path4561"
         style="fill:#f9fafa;fill-opacity:1;fill-rule:nonzero;stroke:none"
         d="M 0,0 -66.667,-21.68 0,-43.359 0,0 z"
         transform="translate(-399.999,0)" />
      <path
         inkscape:connector-curvature="0"
         id="path4565"
         style="fill:#f2f4f5;fill-opacity:1;fill-rule:nonzero;stroke:none"
         d="M 0,0 -66.668,-21.68 0,-43.359 0,0 z"
         transform="translate(-133.332,0)" />
      <path
         inkscape:connector-curvature="0"
         id="path4569"
         style="fill:#b7c3c6;fill-opacity:1;fill-rule:nonzero;stroke:none"
         d="M 0,0 -66.666,-21.68 0,-43.359 0,0 z"
         transform="translate(133.334,0)" />
      <path
         inkscape:connector-curvature="0"
         id="path4585"
         style="fill:#e5ebed;fill-opacity:1;fill-rule:nonzero;stroke:none"
         d="M 0,0 -66.666,-21.68 0,-43.359 0,0 z"
         transform="translate(-533.333,0)" />
      <path
         inkscape:connector-curvature="0"
         id="path4589"
         style="fill:#fafbfb;fill-opacity:1;fill-rule:nonzero;stroke:none"
         d="M 0,0 -66.666,-21.68 0,-43.359 0,0 z"
         transform="translate(-266.666,0)" />
      <path
         inkscape:connector-curvature="0"
         id="path4593"
         style="fill:#e5e9eb;fill-opacity:1;fill-rule:nonzero;stroke:none"
         d="M 0,0 -66.666,-21.68 0,-43.359 0,0 z" />
    </g>
  </g>
</svg>
